%YAML 1.1
%TAG !u! tag:unity3d.com,2011:
--- !u!29 &1
OcclusionCullingSettings:
  m_ObjectHideFlags: 0
  serializedVersion: 2
  m_OcclusionBakeSettings:
    smallestOccluder: 5
    smallestHole: 0.25
    backfaceThreshold: 100
  m_SceneGUID: 00000000000000000000000000000000
  m_OcclusionCullingData: {fileID: 0}
--- !u!104 &2
RenderSettings:
  m_ObjectHideFlags: 0
  serializedVersion: 9
  m_Fog: 0
  m_FogColor: {r: 0.5, g: 0.5, b: 0.5, a: 1}
  m_FogMode: 3
  m_FogDensity: 0.01
  m_LinearFogStart: 0
  m_LinearFogEnd: 300
  m_AmbientSkyColor: {r: 0.212, g: 0.227, b: 0.259, a: 1}
  m_AmbientEquatorColor: {r: 0.114, g: 0.125, b: 0.133, a: 1}
  m_AmbientGroundColor: {r: 0.047, g: 0.043, b: 0.035, a: 1}
  m_AmbientIntensity: 1
  m_AmbientMode: 0
  m_SubtractiveShadowColor: {r: 0.42, g: 0.478, b: 0.627, a: 1}
  m_SkyboxMaterial: {fileID: 10304, guid: 0000000000000000f000000000000000, type: 0}
  m_HaloStrength: 0.5
  m_FlareStrength: 1
  m_FlareFadeSpeed: 3
  m_HaloTexture: {fileID: 0}
  m_SpotCookie: {fileID: 10001, guid: 0000000000000000e000000000000000, type: 0}
  m_DefaultReflectionMode: 0
  m_DefaultReflectionResolution: 128
  m_ReflectionBounces: 1
  m_ReflectionIntensity: 1
  m_CustomReflection: {fileID: 0}
  m_Sun: {fileID: 0}
  m_IndirectSpecularColor: {r: 0, g: 0, b: 0, a: 1}
  m_UseRadianceAmbientProbe: 0
--- !u!157 &4
LightmapSettings:
  m_ObjectHideFlags: 0
  serializedVersion: 12
  m_GIWorkflowMode: 0
  m_GISettings:
    serializedVersion: 2
    m_BounceScale: 1
    m_IndirectOutputScale: 1
    m_AlbedoBoost: 1
    m_EnvironmentLightingMode: 0
    m_EnableBakedLightmaps: 1
    m_EnableRealtimeLightmaps: 1
  m_LightmapEditorSettings:
    serializedVersion: 12
    m_Resolution: 2
    m_BakeResolution: 40
    m_AtlasSize: 1024
    m_AO: 0
    m_AOMaxDistance: 1
    m_CompAOExponent: 0
    m_CompAOExponentDirect: 0
    m_ExtractAmbientOcclusion: 0
    m_Padding: 2
    m_LightmapParameters: {fileID: 0}
    m_LightmapsBakeMode: 1
    m_TextureCompression: 1
    m_FinalGather: 0
    m_FinalGatherFiltering: 1
    m_FinalGatherRayCount: 1024
    m_ReflectionCompression: 2
    m_MixedBakeMode: 1
    m_BakeBackend: 0
    m_PVRSampling: 1
    m_PVRDirectSampleCount: 32
    m_PVRSampleCount: 500
    m_PVRBounces: 2
    m_PVREnvironmentSampleCount: 500
    m_PVREnvironmentReferencePointCount: 2048
    m_PVRFilteringMode: 2
    m_PVRDenoiserTypeDirect: 0
    m_PVRDenoiserTypeIndirect: 0
    m_PVRDenoiserTypeAO: 0
    m_PVRFilterTypeDirect: 0
    m_PVRFilterTypeIndirect: 0
    m_PVRFilterTypeAO: 0
    m_PVREnvironmentMIS: 0
    m_PVRCulling: 1
    m_PVRFilteringGaussRadiusDirect: 1
    m_PVRFilteringGaussRadiusIndirect: 5
    m_PVRFilteringGaussRadiusAO: 2
    m_PVRFilteringAtrousPositionSigmaDirect: 0.5
    m_PVRFilteringAtrousPositionSigmaIndirect: 2
    m_PVRFilteringAtrousPositionSigmaAO: 1
    m_ExportTrainingData: 0
    m_TrainingDataDestination: TrainingData
    m_LightProbeSampleCountMultiplier: 4
  m_LightingDataAsset: {fileID: 0}
  m_LightingSettings: {fileID: 4890085278179872738, guid: 02f21d6d723c1144d9cd9b5d020ce487,
    type: 2}
--- !u!196 &5
NavMeshSettings:
  serializedVersion: 2
  m_ObjectHideFlags: 0
  m_BuildSettings:
    serializedVersion: 2
    agentTypeID: 0
    agentRadius: 0.5
    agentHeight: 2
    agentSlope: 45
    agentClimb: 0.4
    ledgeDropHeight: 0
    maxJumpAcrossDistance: 0
    minRegionArea: 2
    manualCellSize: 0
    cellSize: 0.16666667
    manualTileSize: 0
    tileSize: 256
    accuratePlacement: 0
    maxJobWorkers: 0
    preserveTilesOutsideBounds: 0
    debug:
      m_Flags: 0
  m_NavMeshData: {fileID: 0}
--- !u!1 &21365382
GameObject:
  m_ObjectHideFlags: 0
  m_CorrespondingSourceObject: {fileID: 0}
  m_PrefabInstance: {fileID: 0}
  m_PrefabAsset: {fileID: 0}
  serializedVersion: 6
  m_Component:
  - component: {fileID: 21365383}
  - component: {fileID: 21365391}
  - component: {fileID: 21365390}
  - component: {fileID: 21365389}
  - component: {fileID: 21365388}
  - component: {fileID: 21365387}
  - component: {fileID: 21365386}
  - component: {fileID: 21365385}
  - component: {fileID: 21365384}
  - component: {fileID: 21365392}
  m_Layer: 10
  m_Name: Obi Rope (2)
  m_TagString: Untagged
  m_Icon: {fileID: 0}
  m_NavMeshLayer: 0
  m_StaticEditorFlags: 0
  m_IsActive: 1
--- !u!4 &21365383
Transform:
  m_ObjectHideFlags: 0
  m_CorrespondingSourceObject: {fileID: 0}
  m_PrefabInstance: {fileID: 0}
  m_PrefabAsset: {fileID: 0}
  m_GameObject: {fileID: 21365382}
  m_LocalRotation: {x: -0, y: -0.86010015, z: -0, w: 0.5101253}
  m_LocalPosition: {x: 0.152, y: 3.996, z: -0.234}
  m_LocalScale: {x: 1, y: 1, z: 1}
  m_Children: []
  m_Father: {fileID: 2102841797}
  m_RootOrder: 2
  m_LocalEulerAnglesHint: {x: 0, y: -118.656006, z: 0}
--- !u!114 &21365384
MonoBehaviour:
  m_ObjectHideFlags: 0
  m_CorrespondingSourceObject: {fileID: 0}
  m_PrefabInstance: {fileID: 0}
  m_PrefabAsset: {fileID: 0}
  m_GameObject: {fileID: 21365382}
  m_Enabled: 1
  m_EditorHideFlags: 0
  m_Script: {fileID: 11500000, guid: 88cb6f64c607f46b3b0d7a30a99ed18b, type: 3}
  m_Name: 
  m_EditorClassIdentifier: 
  cam: {fileID: 1002464895}
--- !u!114 &21365385
MonoBehaviour:
  m_ObjectHideFlags: 0
  m_CorrespondingSourceObject: {fileID: 0}
  m_PrefabInstance: {fileID: 0}
  m_PrefabAsset: {fileID: 0}
  m_GameObject: {fileID: 21365382}
  m_Enabled: 1
  m_EditorHideFlags: 0
  m_Script: {fileID: 11500000, guid: 4d03c9194b7ab4aaba4dfa5afec22c69, type: 3}
  m_Name: 
  m_EditorClassIdentifier: 
  m_Actor: {fileID: 21365389}
  m_Target: {fileID: 21365383}
  m_ParticleGroup: {fileID: -8864857226987616246, guid: f92460ac39eb444ad8f2bfb5714bb425,
    type: 2}
  m_AttachmentType: 0
  m_ConstrainOrientation: 0
  m_Compliance: 0
  m_BreakThreshold: Infinity
--- !u!114 &21365386
MonoBehaviour:
  m_ObjectHideFlags: 0
  m_CorrespondingSourceObject: {fileID: 0}
  m_PrefabInstance: {fileID: 0}
  m_PrefabAsset: {fileID: 0}
  m_GameObject: {fileID: 21365382}
  m_Enabled: 1
  m_EditorHideFlags: 0
  m_Script: {fileID: 11500000, guid: 4d03c9194b7ab4aaba4dfa5afec22c69, type: 3}
  m_Name: 
  m_EditorClassIdentifier: 
  m_Actor: {fileID: 21365389}
  m_Target: {fileID: 21365383}
  m_ParticleGroup: {fileID: -2639811391673711616, guid: d82adbfa2e0744621823a657cc1d4d9a,
    type: 2}
  m_AttachmentType: 0
  m_ConstrainOrientation: 0
  m_Compliance: 0
  m_BreakThreshold: Infinity
--- !u!114 &21365387
MonoBehaviour:
  m_ObjectHideFlags: 0
  m_CorrespondingSourceObject: {fileID: 0}
  m_PrefabInstance: {fileID: 0}
  m_PrefabAsset: {fileID: 0}
  m_GameObject: {fileID: 21365382}
  m_Enabled: 1
  m_EditorHideFlags: 0
  m_Script: {fileID: 11500000, guid: c4747da60837c44f9ba4b4a86879bcc8, type: 3}
  m_Name: 
  m_EditorClassIdentifier: 
  uvAnchor: 0
  uvScale: {x: 1, y: 16}
  normalizeV: 1
  section: {fileID: 11400000, guid: a0bc36a59515f413e90e10895929c938, type: 2}
  thicknessScale: 0.8
--- !u!114 &21365388
MonoBehaviour:
  m_ObjectHideFlags: 0
  m_CorrespondingSourceObject: {fileID: 0}
  m_PrefabInstance: {fileID: 0}
  m_PrefabAsset: {fileID: 0}
  m_GameObject: {fileID: 21365382}
  m_Enabled: 1
  m_EditorHideFlags: 0
  m_Script: {fileID: 11500000, guid: 958c969cfb16745f192d4d7bd28b7178, type: 3}
  m_Name: 
  m_EditorClassIdentifier: 
  decimation: 0.05
  smoothing: 1
  twist: 0
--- !u!114 &21365389
MonoBehaviour:
  m_ObjectHideFlags: 0
  m_CorrespondingSourceObject: {fileID: 0}
  m_PrefabInstance: {fileID: 0}
  m_PrefabAsset: {fileID: 0}
  m_GameObject: {fileID: 21365382}
  m_Enabled: 1
  m_EditorHideFlags: 0
  m_Script: {fileID: 11500000, guid: 61104f33a3f344db9b7e0d0cda41a9fb, type: 3}
  m_Name: 
  m_EditorClassIdentifier: 
  m_CollisionMaterial: {fileID: 0}
  m_SurfaceCollisions: 1
  m_SelfCollisions: 1
  restLength_: 5.3759427
  elements:
  - particle1: 0
    particle2: 1
    restLength: 0.11737857
    constraintForce: 0
    tearResistance: 1
  - particle1: 1
    particle2: 2
    restLength: 0.11757569
    constraintForce: 0
    tearResistance: 1
  - particle1: 2
    particle2: 3
    restLength: 0.117257625
    constraintForce: 0
    tearResistance: 1
  - particle1: 3
    particle2: 4
    restLength: 0.117347114
    constraintForce: 0
    tearResistance: 1
  - particle1: 4
    particle2: 5
    restLength: 0.11749813
    constraintForce: 0
    tearResistance: 1
  - particle1: 5
    particle2: 6
    restLength: 0.117627345
    constraintForce: 0
    tearResistance: 1
  - particle1: 6
    particle2: 7
    restLength: 0.1176776
    constraintForce: 0
    tearResistance: 1
  - particle1: 7
    particle2: 8
    restLength: 0.11761664
    constraintForce: 0
    tearResistance: 1
  - particle1: 8
    particle2: 9
    restLength: 0.117508255
    constraintForce: 0
    tearResistance: 1
  - particle1: 9
    particle2: 10
    restLength: 0.11763225
    constraintForce: 0
    tearResistance: 1
  - particle1: 10
    particle2: 11
    restLength: 0.11766701
    constraintForce: 0
    tearResistance: 1
  - particle1: 11
    particle2: 12
    restLength: 0.117603354
    constraintForce: 0
    tearResistance: 1
  - particle1: 12
    particle2: 13
    restLength: 0.11748713
    constraintForce: 0
    tearResistance: 1
  - particle1: 13
    particle2: 14
    restLength: 0.11737358
    constraintForce: 0
    tearResistance: 1
  - particle1: 14
    particle2: 15
    restLength: 0.11731443
    constraintForce: 0
    tearResistance: 1
  - particle1: 15
    particle2: 16
    restLength: 0.117334664
    constraintForce: 0
    tearResistance: 1
  - particle1: 16
    particle2: 17
    restLength: 0.117409684
    constraintForce: 0
    tearResistance: 1
  - particle1: 17
    particle2: 18
    restLength: 0.117427535
    constraintForce: 0
    tearResistance: 1
  - particle1: 18
    particle2: 19
    restLength: 0.1173339
    constraintForce: 0
    tearResistance: 1
  - particle1: 19
    particle2: 20
    restLength: 0.11715327
    constraintForce: 0
    tearResistance: 1
  - particle1: 20
    particle2: 21
    restLength: 0.11707407
    constraintForce: 0
    tearResistance: 1
  - particle1: 21
    particle2: 22
    restLength: 0.11728205
    constraintForce: 0
    tearResistance: 1
  - particle1: 22
    particle2: 23
    restLength: 0.11794879
    constraintForce: 0
    tearResistance: 1
  - particle1: 23
    particle2: 24
    restLength: 0.11673033
    constraintForce: 0
    tearResistance: 1
  - particle1: 24
    particle2: 25
    restLength: 0.116027325
    constraintForce: 0
    tearResistance: 1
  - particle1: 25
    particle2: 26
    restLength: 0.115863316
    constraintForce: 0
    tearResistance: 1
  - particle1: 26
    particle2: 27
    restLength: 0.11598866
    constraintForce: 0
    tearResistance: 1
  - particle1: 27
    particle2: 28
    restLength: 0.11614065
    constraintForce: 0
    tearResistance: 1
  - particle1: 28
    particle2: 29
    restLength: 0.11616688
    constraintForce: 0
    tearResistance: 1
  - particle1: 29
    particle2: 30
    restLength: 0.11612464
    constraintForce: 0
    tearResistance: 1
  - particle1: 30
    particle2: 31
    restLength: 0.116126075
    constraintForce: 0
    tearResistance: 1
  - particle1: 31
    particle2: 32
    restLength: 0.1162187
    constraintForce: 0
    tearResistance: 1
  - particle1: 32
    particle2: 33
    restLength: 0.116368376
    constraintForce: 0
    tearResistance: 1
  - particle1: 33
    particle2: 34
    restLength: 0.11650247
    constraintForce: 0
    tearResistance: 1
  - particle1: 34
    particle2: 35
    restLength: 0.11654539
    constraintForce: 0
    tearResistance: 1
  - particle1: 35
    particle2: 36
    restLength: 0.11637627
    constraintForce: 0
    tearResistance: 1
  - particle1: 36
    particle2: 37
    restLength: 0.116367616
    constraintForce: 0
    tearResistance: 1
  - particle1: 37
    particle2: 38
    restLength: 0.116505764
    constraintForce: 0
    tearResistance: 1
  - particle1: 38
    particle2: 39
    restLength: 0.11647182
    constraintForce: 0
    tearResistance: 1
  - particle1: 39
    particle2: 40
    restLength: 0.11628203
    constraintForce: 0
    tearResistance: 1
  - particle1: 40
    particle2: 41
    restLength: 0.11606255
    constraintForce: 0
    tearResistance: 1
  - particle1: 41
    particle2: 42
    restLength: 0.11669507
    constraintForce: 0
    tearResistance: 1
  - particle1: 42
    particle2: 43
    restLength: 0.116644375
    constraintForce: 0
    tearResistance: 1
  - particle1: 43
    particle2: 44
    restLength: 0.11652727
    constraintForce: 0
    tearResistance: 1
  - particle1: 44
    particle2: 45
    restLength: 0.116267465
    constraintForce: 0
    tearResistance: 1
  - particle1: 45
    particle2: 46
    restLength: 0.115411185
    constraintForce: 0
    tearResistance: 1
  m_RopeBlueprint: {fileID: 11400000, guid: f92460ac39eb444ad8f2bfb5714bb425, type: 2}
  tearingEnabled: 0
  tearResistanceMultiplier: 1000
  tearRate: 1
  _distanceConstraintsEnabled: 1
  _stretchingScale: 1
  _stretchCompliance: 0
  _maxCompression: 0
  _bendConstraintsEnabled: 1
  _bendCompliance: 0.02
  _maxBending: 0.025
  _plasticYield: 0
  _plasticCreep: 0
--- !u!23 &21365390
MeshRenderer:
  m_ObjectHideFlags: 0
  m_CorrespondingSourceObject: {fileID: 0}
  m_PrefabInstance: {fileID: 0}
  m_PrefabAsset: {fileID: 0}
  m_GameObject: {fileID: 21365382}
  m_Enabled: 1
  m_CastShadows: 1
  m_ReceiveShadows: 1
  m_DynamicOccludee: 1
  m_MotionVectors: 1
  m_LightProbeUsage: 1
  m_ReflectionProbeUsage: 1
  m_RayTracingMode: 2
  m_RayTraceProcedural: 0
  m_RenderingLayerMask: 4294967295
  m_RendererPriority: 0
  m_Materials:
  - {fileID: 2100000, guid: 44ab0cc40b59345718856f6e1c1225f3, type: 2}
  m_StaticBatchInfo:
    firstSubMesh: 0
    subMeshCount: 0
  m_StaticBatchRoot: {fileID: 0}
  m_ProbeAnchor: {fileID: 0}
  m_LightProbeVolumeOverride: {fileID: 0}
  m_ScaleInLightmap: 1
  m_ReceiveGI: 1
  m_PreserveUVs: 0
  m_IgnoreNormalsForChartDetection: 0
  m_ImportantGI: 0
  m_StitchLightmapSeams: 0
  m_SelectedEditorRenderState: 3
  m_MinimumChartSize: 4
  m_AutoUVMaxDistance: 0.5
  m_AutoUVMaxAngle: 89
  m_LightmapParameters: {fileID: 0}
  m_SortingLayerID: 0
  m_SortingLayer: 0
  m_SortingOrder: 0
  m_AdditionalVertexStreams: {fileID: 0}
--- !u!33 &21365391
MeshFilter:
  m_ObjectHideFlags: 0
  m_CorrespondingSourceObject: {fileID: 0}
  m_PrefabInstance: {fileID: 0}
  m_PrefabAsset: {fileID: 0}
  m_GameObject: {fileID: 21365382}
  m_Mesh: {fileID: 1726337973}
--- !u!114 &21365392
MonoBehaviour:
  m_ObjectHideFlags: 0
  m_CorrespondingSourceObject: {fileID: 0}
  m_PrefabInstance: {fileID: 0}
  m_PrefabAsset: {fileID: 0}
  m_GameObject: {fileID: 21365382}
  m_Enabled: 1
  m_EditorHideFlags: 0
  m_Script: {fileID: 11500000, guid: 011ecd7e601cf4613b5b59bfd9d70895, type: 3}
  m_Name: 
  m_EditorClassIdentifier: 
  category: 0
--- !u!43 &137927396
Mesh:
  m_ObjectHideFlags: 0
  m_CorrespondingSourceObject: {fileID: 0}
  m_PrefabInstance: {fileID: 0}
  m_PrefabAsset: {fileID: 0}
  m_Name: extrudedMesh
  serializedVersion: 10
  m_SubMeshes:
  - serializedVersion: 2
    firstByte: 0
    indexCount: 0
    topology: 0
    baseVertex: 0
    firstVertex: 0
    vertexCount: 0
    localAABB:
      m_Center: {x: 0, y: 0, z: 0}
      m_Extent: {x: 0, y: 0, z: 0}
  m_Shapes:
    vertices: []
    shapes: []
    channels: []
    fullWeights: []
  m_BindPose: []
  m_BoneNameHashes: 
  m_RootBoneNameHash: 0
  m_BonesAABB: []
  m_VariableBoneCountWeights:
    m_Data: 
  m_MeshCompression: 0
  m_IsReadable: 1
  m_KeepVertices: 1
  m_KeepIndices: 1
  m_IndexFormat: 0
  m_IndexBuffer: 
  m_VertexData:
    serializedVersion: 3
    m_VertexCount: 0
    m_Channels:
    - stream: 0
      offset: 0
      format: 0
      dimension: 0
    - stream: 0
      offset: 0
      format: 0
      dimension: 0
    - stream: 0
      offset: 0
      format: 0
      dimension: 0
    - stream: 0
      offset: 0
      format: 0
      dimension: 0
    - stream: 0
      offset: 0
      format: 0
      dimension: 0
    - stream: 0
      offset: 0
      format: 0
      dimension: 0
    - stream: 0
      offset: 0
      format: 0
      dimension: 0
    - stream: 0
      offset: 0
      format: 0
      dimension: 0
    - stream: 0
      offset: 0
      format: 0
      dimension: 0
    - stream: 0
      offset: 0
      format: 0
      dimension: 0
    - stream: 0
      offset: 0
      format: 0
      dimension: 0
    - stream: 0
      offset: 0
      format: 0
      dimension: 0
    - stream: 0
      offset: 0
      format: 0
      dimension: 0
    - stream: 0
      offset: 0
      format: 0
      dimension: 0
    m_DataSize: 0
    _typelessdata: 
  m_CompressedMesh:
    m_Vertices:
      m_NumItems: 0
      m_Range: 0
      m_Start: 0
      m_Data: 
      m_BitSize: 0
    m_UV:
      m_NumItems: 0
      m_Range: 0
      m_Start: 0
      m_Data: 
      m_BitSize: 0
    m_Normals:
      m_NumItems: 0
      m_Range: 0
      m_Start: 0
      m_Data: 
      m_BitSize: 0
    m_Tangents:
      m_NumItems: 0
      m_Range: 0
      m_Start: 0
      m_Data: 
      m_BitSize: 0
    m_Weights:
      m_NumItems: 0
      m_Data: 
      m_BitSize: 0
    m_NormalSigns:
      m_NumItems: 0
      m_Data: 
      m_BitSize: 0
    m_TangentSigns:
      m_NumItems: 0
      m_Data: 
      m_BitSize: 0
    m_FloatColors:
      m_NumItems: 0
      m_Range: 0
      m_Start: 0
      m_Data: 
      m_BitSize: 0
    m_BoneIndices:
      m_NumItems: 0
      m_Data: 
      m_BitSize: 0
    m_Triangles:
      m_NumItems: 0
      m_Data: 
      m_BitSize: 0
    m_UVInfo: 0
  m_LocalAABB:
    m_Center: {x: 0, y: 0, z: 0}
    m_Extent: {x: 0, y: 0, z: 0}
  m_MeshUsageFlags: 0
  m_BakedConvexCollisionMesh: 
  m_BakedTriangleCollisionMesh: 
  m_MeshMetrics[0]: 1
  m_MeshMetrics[1]: 1
  m_MeshOptimizationFlags: 1
  m_StreamData:
    serializedVersion: 2
    offset: 0
    size: 0
    path: 
--- !u!1001 &421764872
PrefabInstance:
  m_ObjectHideFlags: 0
  serializedVersion: 2
  m_Modification:
    m_TransformParent: {fileID: 0}
    m_Modifications:
    - target: {fileID: 400000, guid: 64df75de10b494f109b074d28a8eade0, type: 3}
      propertyPath: m_RootOrder
      value: 1
      objectReference: {fileID: 0}
    - target: {fileID: 400000, guid: 64df75de10b494f109b074d28a8eade0, type: 3}
      propertyPath: m_LocalPosition.x
      value: 0
      objectReference: {fileID: 0}
    - target: {fileID: 400000, guid: 64df75de10b494f109b074d28a8eade0, type: 3}
      propertyPath: m_LocalPosition.y
      value: 0
      objectReference: {fileID: 0}
    - target: {fileID: 400000, guid: 64df75de10b494f109b074d28a8eade0, type: 3}
      propertyPath: m_LocalPosition.z
      value: 0
      objectReference: {fileID: 0}
    - target: {fileID: 400000, guid: 64df75de10b494f109b074d28a8eade0, type: 3}
      propertyPath: m_LocalRotation.w
      value: 1
      objectReference: {fileID: 0}
    - target: {fileID: 400000, guid: 64df75de10b494f109b074d28a8eade0, type: 3}
      propertyPath: m_LocalRotation.x
      value: 0
      objectReference: {fileID: 0}
    - target: {fileID: 400000, guid: 64df75de10b494f109b074d28a8eade0, type: 3}
      propertyPath: m_LocalRotation.y
      value: -0
      objectReference: {fileID: 0}
    - target: {fileID: 400000, guid: 64df75de10b494f109b074d28a8eade0, type: 3}
      propertyPath: m_LocalRotation.z
      value: -0
      objectReference: {fileID: 0}
    - target: {fileID: 2300000, guid: 64df75de10b494f109b074d28a8eade0, type: 3}
      propertyPath: m_Materials.Array.data[0]
      value: 
      objectReference: {fileID: 2100000, guid: a0a5f9e13fa7c47f78547e54896609da, type: 2}
    m_RemovedComponents: []
  m_SourcePrefab: {fileID: 100100000, guid: 64df75de10b494f109b074d28a8eade0, type: 3}
--- !u!1 &506459881 stripped
GameObject:
  m_CorrespondingSourceObject: {fileID: 100000, guid: 64df75de10b494f109b074d28a8eade0,
    type: 3}
  m_PrefabInstance: {fileID: 421764872}
  m_PrefabAsset: {fileID: 0}
--- !u!64 &506459882
MeshCollider:
  m_ObjectHideFlags: 0
  m_CorrespondingSourceObject: {fileID: 0}
  m_PrefabInstance: {fileID: 0}
  m_PrefabAsset: {fileID: 0}
  m_GameObject: {fileID: 506459881}
  m_Material: {fileID: 0}
  m_IsTrigger: 0
  m_Enabled: 1
  serializedVersion: 4
  m_Convex: 0
  m_CookingOptions: 30
  m_Mesh: {fileID: 4300000, guid: 64df75de10b494f109b074d28a8eade0, type: 3}
--- !u!114 &506459883
MonoBehaviour:
  m_ObjectHideFlags: 0
  m_CorrespondingSourceObject: {fileID: 0}
  m_PrefabInstance: {fileID: 0}
  m_PrefabAsset: {fileID: 0}
  m_GameObject: {fileID: 506459881}
  m_Enabled: 1
  m_EditorHideFlags: 0
  m_Script: {fileID: 11500000, guid: 6757b231cedd544c583ef8aeaf773b2a, type: 3}
  m_Name: 
  m_EditorClassIdentifier: 
  thickness: 0
  material: {fileID: 11400000, guid: d368f2c47473d4bfb8dd9f08073cb403, type: 2}
  filter: -65535
  m_SourceCollider: {fileID: 506459882}
  m_DistanceField: {fileID: 11400000, guid: 5eb5ff1af3a3f4a14977448198c232ae, type: 2}
--- !u!1 &648289270
GameObject:
  m_ObjectHideFlags: 0
  m_CorrespondingSourceObject: {fileID: 0}
  m_PrefabInstance: {fileID: 0}
  m_PrefabAsset: {fileID: 0}
  serializedVersion: 6
  m_Component:
  - component: {fileID: 648289271}
  - component: {fileID: 648289279}
  - component: {fileID: 648289278}
  - component: {fileID: 648289277}
  - component: {fileID: 648289276}
  - component: {fileID: 648289275}
  - component: {fileID: 648289274}
  - component: {fileID: 648289273}
  - component: {fileID: 648289272}
  - component: {fileID: 648289280}
  m_Layer: 10
  m_Name: Obi Rope (1)
  m_TagString: Untagged
  m_Icon: {fileID: 0}
  m_NavMeshLayer: 0
  m_StaticEditorFlags: 0
  m_IsActive: 1
--- !u!4 &648289271
Transform:
  m_ObjectHideFlags: 0
  m_CorrespondingSourceObject: {fileID: 0}
  m_PrefabInstance: {fileID: 0}
  m_PrefabAsset: {fileID: 0}
  m_GameObject: {fileID: 648289270}
  m_LocalRotation: {x: -0, y: 0.9226075, z: -0, w: 0.38574016}
  m_LocalPosition: {x: -0.516, y: 3.215, z: -0.009}
  m_LocalScale: {x: 1, y: 1, z: 1}
  m_Children: []
  m_Father: {fileID: 2102841797}
  m_RootOrder: 1
  m_LocalEulerAnglesHint: {x: 0, y: 134.621, z: 0}
--- !u!114 &648289272
MonoBehaviour:
  m_ObjectHideFlags: 0
  m_CorrespondingSourceObject: {fileID: 0}
  m_PrefabInstance: {fileID: 0}
  m_PrefabAsset: {fileID: 0}
  m_GameObject: {fileID: 648289270}
  m_Enabled: 1
  m_EditorHideFlags: 0
  m_Script: {fileID: 11500000, guid: 88cb6f64c607f46b3b0d7a30a99ed18b, type: 3}
  m_Name: 
  m_EditorClassIdentifier: 
  cam: {fileID: 1002464895}
--- !u!114 &648289273
MonoBehaviour:
  m_ObjectHideFlags: 0
  m_CorrespondingSourceObject: {fileID: 0}
  m_PrefabInstance: {fileID: 0}
  m_PrefabAsset: {fileID: 0}
  m_GameObject: {fileID: 648289270}
  m_Enabled: 1
  m_EditorHideFlags: 0
  m_Script: {fileID: 11500000, guid: 4d03c9194b7ab4aaba4dfa5afec22c69, type: 3}
  m_Name: 
  m_EditorClassIdentifier: 
  m_Actor: {fileID: 648289277}
  m_Target: {fileID: 648289271}
  m_ParticleGroup: {fileID: -8864857226987616246, guid: f92460ac39eb444ad8f2bfb5714bb425,
    type: 2}
  m_AttachmentType: 0
  m_ConstrainOrientation: 0
  m_Compliance: 0
  m_BreakThreshold: Infinity
--- !u!114 &648289274
MonoBehaviour:
  m_ObjectHideFlags: 0
  m_CorrespondingSourceObject: {fileID: 0}
  m_PrefabInstance: {fileID: 0}
  m_PrefabAsset: {fileID: 0}
  m_GameObject: {fileID: 648289270}
  m_Enabled: 1
  m_EditorHideFlags: 0
  m_Script: {fileID: 11500000, guid: 4d03c9194b7ab4aaba4dfa5afec22c69, type: 3}
  m_Name: 
  m_EditorClassIdentifier: 
  m_Actor: {fileID: 648289277}
  m_Target: {fileID: 648289271}
  m_ParticleGroup: {fileID: -2639811391673711616, guid: d82adbfa2e0744621823a657cc1d4d9a,
    type: 2}
  m_AttachmentType: 0
  m_ConstrainOrientation: 0
  m_Compliance: 0
  m_BreakThreshold: Infinity
--- !u!114 &648289275
MonoBehaviour:
  m_ObjectHideFlags: 0
  m_CorrespondingSourceObject: {fileID: 0}
  m_PrefabInstance: {fileID: 0}
  m_PrefabAsset: {fileID: 0}
  m_GameObject: {fileID: 648289270}
  m_Enabled: 1
  m_EditorHideFlags: 0
  m_Script: {fileID: 11500000, guid: c4747da60837c44f9ba4b4a86879bcc8, type: 3}
  m_Name: 
  m_EditorClassIdentifier: 
  uvAnchor: 0
  uvScale: {x: 1, y: 16}
  normalizeV: 1
  section: {fileID: 11400000, guid: a0bc36a59515f413e90e10895929c938, type: 2}
  thicknessScale: 0.8
--- !u!114 &648289276
MonoBehaviour:
  m_ObjectHideFlags: 0
  m_CorrespondingSourceObject: {fileID: 0}
  m_PrefabInstance: {fileID: 0}
  m_PrefabAsset: {fileID: 0}
  m_GameObject: {fileID: 648289270}
  m_Enabled: 1
  m_EditorHideFlags: 0
  m_Script: {fileID: 11500000, guid: 958c969cfb16745f192d4d7bd28b7178, type: 3}
  m_Name: 
  m_EditorClassIdentifier: 
  decimation: 0.05
  smoothing: 1
  twist: 0
--- !u!114 &648289277
MonoBehaviour:
  m_ObjectHideFlags: 0
  m_CorrespondingSourceObject: {fileID: 0}
  m_PrefabInstance: {fileID: 0}
  m_PrefabAsset: {fileID: 0}
  m_GameObject: {fileID: 648289270}
  m_Enabled: 1
  m_EditorHideFlags: 0
  m_Script: {fileID: 11500000, guid: 61104f33a3f344db9b7e0d0cda41a9fb, type: 3}
  m_Name: 
  m_EditorClassIdentifier: 
  m_CollisionMaterial: {fileID: 0}
  m_SurfaceCollisions: 1
  m_SelfCollisions: 1
  restLength_: 5.3759427
  elements:
  - particle1: 147
    particle2: 148
    restLength: 0.11737857
    constraintForce: 0
    tearResistance: 1
  - particle1: 148
    particle2: 149
    restLength: 0.11757569
    constraintForce: 0
    tearResistance: 1
  - particle1: 149
    particle2: 150
    restLength: 0.117257625
    constraintForce: 0
    tearResistance: 1
  - particle1: 150
    particle2: 151
    restLength: 0.117347114
    constraintForce: 0
    tearResistance: 1
  - particle1: 151
    particle2: 152
    restLength: 0.11749813
    constraintForce: 0
    tearResistance: 1
  - particle1: 152
    particle2: 153
    restLength: 0.117627345
    constraintForce: 0
    tearResistance: 1
  - particle1: 153
    particle2: 154
    restLength: 0.1176776
    constraintForce: 0
    tearResistance: 1
  - particle1: 154
    particle2: 155
    restLength: 0.11761664
    constraintForce: 0
    tearResistance: 1
  - particle1: 155
    particle2: 156
    restLength: 0.117508255
    constraintForce: 0
    tearResistance: 1
  - particle1: 156
    particle2: 157
    restLength: 0.11763225
    constraintForce: 0
    tearResistance: 1
  - particle1: 157
    particle2: 158
    restLength: 0.11766701
    constraintForce: 0
    tearResistance: 1
  - particle1: 158
    particle2: 159
    restLength: 0.117603354
    constraintForce: 0
    tearResistance: 1
  - particle1: 159
    particle2: 160
    restLength: 0.11748713
    constraintForce: 0
    tearResistance: 1
  - particle1: 160
    particle2: 161
    restLength: 0.11737358
    constraintForce: 0
    tearResistance: 1
  - particle1: 161
    particle2: 162
    restLength: 0.11731443
    constraintForce: 0
    tearResistance: 1
  - particle1: 162
    particle2: 163
    restLength: 0.117334664
    constraintForce: 0
    tearResistance: 1
  - particle1: 163
    particle2: 164
    restLength: 0.117409684
    constraintForce: 0
    tearResistance: 1
  - particle1: 164
    particle2: 165
    restLength: 0.117427535
    constraintForce: 0
    tearResistance: 1
  - particle1: 165
    particle2: 166
    restLength: 0.1173339
    constraintForce: 0
    tearResistance: 1
  - particle1: 166
    particle2: 167
    restLength: 0.11715327
    constraintForce: 0
    tearResistance: 1
  - particle1: 167
    particle2: 168
    restLength: 0.11707407
    constraintForce: 0
    tearResistance: 1
  - particle1: 168
    particle2: 169
    restLength: 0.11728205
    constraintForce: 0
    tearResistance: 1
  - particle1: 169
    particle2: 170
    restLength: 0.11794879
    constraintForce: 0
    tearResistance: 1
  - particle1: 170
    particle2: 171
    restLength: 0.11673033
    constraintForce: 0
    tearResistance: 1
  - particle1: 171
    particle2: 172
    restLength: 0.116027325
    constraintForce: 0
    tearResistance: 1
  - particle1: 172
    particle2: 173
    restLength: 0.115863316
    constraintForce: 0
    tearResistance: 1
  - particle1: 173
    particle2: 174
    restLength: 0.11598866
    constraintForce: 0
    tearResistance: 1
  - particle1: 174
    particle2: 175
    restLength: 0.11614065
    constraintForce: 0
    tearResistance: 1
  - particle1: 175
    particle2: 176
    restLength: 0.11616688
    constraintForce: 0
    tearResistance: 1
  - particle1: 176
    particle2: 177
    restLength: 0.11612464
    constraintForce: 0
    tearResistance: 1
  - particle1: 177
    particle2: 178
    restLength: 0.116126075
    constraintForce: 0
    tearResistance: 1
  - particle1: 178
    particle2: 179
    restLength: 0.1162187
    constraintForce: 0
    tearResistance: 1
  - particle1: 179
    particle2: 180
    restLength: 0.116368376
    constraintForce: 0
    tearResistance: 1
  - particle1: 180
    particle2: 181
    restLength: 0.11650247
    constraintForce: 0
    tearResistance: 1
  - particle1: 181
    particle2: 182
    restLength: 0.11654539
    constraintForce: 0
    tearResistance: 1
  - particle1: 182
    particle2: 183
    restLength: 0.11637627
    constraintForce: 0
    tearResistance: 1
  - particle1: 183
    particle2: 184
    restLength: 0.116367616
    constraintForce: 0
    tearResistance: 1
  - particle1: 184
    particle2: 185
    restLength: 0.116505764
    constraintForce: 0
    tearResistance: 1
  - particle1: 185
    particle2: 186
    restLength: 0.11647182
    constraintForce: 0
    tearResistance: 1
  - particle1: 186
    particle2: 187
    restLength: 0.11628203
    constraintForce: 0
    tearResistance: 1
  - particle1: 187
    particle2: 188
    restLength: 0.11606255
    constraintForce: 0
    tearResistance: 1
  - particle1: 188
    particle2: 189
    restLength: 0.11669507
    constraintForce: 0
    tearResistance: 1
  - particle1: 189
    particle2: 190
    restLength: 0.116644375
    constraintForce: 0
    tearResistance: 1
  - particle1: 190
    particle2: 191
    restLength: 0.11652727
    constraintForce: 0
    tearResistance: 1
  - particle1: 191
    particle2: 192
    restLength: 0.116267465
    constraintForce: 0
    tearResistance: 1
  - particle1: 192
    particle2: 193
    restLength: 0.115411185
    constraintForce: 0
    tearResistance: 1
  m_RopeBlueprint: {fileID: 11400000, guid: f92460ac39eb444ad8f2bfb5714bb425, type: 2}
  tearingEnabled: 0
  tearResistanceMultiplier: 1000
  tearRate: 1
  _distanceConstraintsEnabled: 1
  _stretchingScale: 1
  _stretchCompliance: 0
  _maxCompression: 0
  _bendConstraintsEnabled: 1
  _bendCompliance: 0.02
  _maxBending: 0.025
  _plasticYield: 0
  _plasticCreep: 0
--- !u!23 &648289278
MeshRenderer:
  m_ObjectHideFlags: 0
  m_CorrespondingSourceObject: {fileID: 0}
  m_PrefabInstance: {fileID: 0}
  m_PrefabAsset: {fileID: 0}
  m_GameObject: {fileID: 648289270}
  m_Enabled: 1
  m_CastShadows: 1
  m_ReceiveShadows: 1
  m_DynamicOccludee: 1
  m_MotionVectors: 1
  m_LightProbeUsage: 1
  m_ReflectionProbeUsage: 1
  m_RayTracingMode: 2
  m_RayTraceProcedural: 0
  m_RenderingLayerMask: 4294967295
  m_RendererPriority: 0
  m_Materials:
  - {fileID: 2100000, guid: 44ab0cc40b59345718856f6e1c1225f3, type: 2}
  m_StaticBatchInfo:
    firstSubMesh: 0
    subMeshCount: 0
  m_StaticBatchRoot: {fileID: 0}
  m_ProbeAnchor: {fileID: 0}
  m_LightProbeVolumeOverride: {fileID: 0}
  m_ScaleInLightmap: 1
  m_ReceiveGI: 1
  m_PreserveUVs: 0
  m_IgnoreNormalsForChartDetection: 0
  m_ImportantGI: 0
  m_StitchLightmapSeams: 0
  m_SelectedEditorRenderState: 3
  m_MinimumChartSize: 4
  m_AutoUVMaxDistance: 0.5
  m_AutoUVMaxAngle: 89
  m_LightmapParameters: {fileID: 0}
  m_SortingLayerID: 0
  m_SortingLayer: 0
  m_SortingOrder: 0
  m_AdditionalVertexStreams: {fileID: 0}
--- !u!33 &648289279
MeshFilter:
  m_ObjectHideFlags: 0
  m_CorrespondingSourceObject: {fileID: 0}
  m_PrefabInstance: {fileID: 0}
  m_PrefabAsset: {fileID: 0}
  m_GameObject: {fileID: 648289270}
  m_Mesh: {fileID: 137927396}
--- !u!114 &648289280
MonoBehaviour:
  m_ObjectHideFlags: 0
  m_CorrespondingSourceObject: {fileID: 0}
  m_PrefabInstance: {fileID: 0}
  m_PrefabAsset: {fileID: 0}
  m_GameObject: {fileID: 648289270}
  m_Enabled: 1
  m_EditorHideFlags: 0
  m_Script: {fileID: 11500000, guid: 011ecd7e601cf4613b5b59bfd9d70895, type: 3}
  m_Name: 
  m_EditorClassIdentifier: 
  category: 0
--- !u!1 &657446549
GameObject:
  m_ObjectHideFlags: 0
  m_CorrespondingSourceObject: {fileID: 0}
  m_PrefabInstance: {fileID: 0}
  m_PrefabAsset: {fileID: 0}
  serializedVersion: 6
  m_Component:
  - component: {fileID: 657446551}
  - component: {fileID: 657446550}
  m_Layer: 0
  m_Name: OniCollisionWorld
  m_TagString: Untagged
  m_Icon: {fileID: 0}
  m_NavMeshLayer: 0
  m_StaticEditorFlags: 0
  m_IsActive: 1
--- !u!114 &657446550
MonoBehaviour:
  m_ObjectHideFlags: 0
  m_CorrespondingSourceObject: {fileID: 0}
  m_PrefabInstance: {fileID: 0}
  m_PrefabAsset: {fileID: 0}
  m_GameObject: {fileID: 657446549}
  m_Enabled: 1
  m_EditorHideFlags: 0
  m_Script: {fileID: 11500000, guid: d02d25c24c8574316883c920912e4fdb, type: 3}
  m_Name: 
  m_EditorClassIdentifier: 
--- !u!4 &657446551
Transform:
  m_ObjectHideFlags: 0
  m_CorrespondingSourceObject: {fileID: 0}
  m_PrefabInstance: {fileID: 0}
  m_PrefabAsset: {fileID: 0}
  m_GameObject: {fileID: 657446549}
  m_LocalRotation: {x: 0, y: 0, z: 0, w: 1}
  m_LocalPosition: {x: 0, y: 0, z: 0}
  m_LocalScale: {x: 1, y: 1, z: 1}
  m_Children: []
  m_Father: {fileID: 0}
  m_RootOrder: 6
  m_LocalEulerAnglesHint: {x: 0, y: 0, z: 0}
--- !u!43 &817841129
Mesh:
  m_ObjectHideFlags: 0
  m_CorrespondingSourceObject: {fileID: 0}
  m_PrefabInstance: {fileID: 0}
  m_PrefabAsset: {fileID: 0}
  m_Name: extrudedMesh
  serializedVersion: 10
  m_SubMeshes:
  - serializedVersion: 2
    firstByte: 0
    indexCount: 0
    topology: 0
    baseVertex: 0
    firstVertex: 0
    vertexCount: 0
    localAABB:
      m_Center: {x: 0, y: 0, z: 0}
      m_Extent: {x: 0, y: 0, z: 0}
  m_Shapes:
    vertices: []
    shapes: []
    channels: []
    fullWeights: []
  m_BindPose: []
  m_BoneNameHashes: 
  m_RootBoneNameHash: 0
  m_BonesAABB: []
  m_VariableBoneCountWeights:
    m_Data: 
  m_MeshCompression: 0
  m_IsReadable: 1
  m_KeepVertices: 1
  m_KeepIndices: 1
  m_IndexFormat: 0
  m_IndexBuffer: 
  m_VertexData:
    serializedVersion: 3
    m_VertexCount: 0
    m_Channels:
    - stream: 0
      offset: 0
      format: 0
      dimension: 0
    - stream: 0
      offset: 0
      format: 0
      dimension: 0
    - stream: 0
      offset: 0
      format: 0
      dimension: 0
    - stream: 0
      offset: 0
      format: 0
      dimension: 0
    - stream: 0
      offset: 0
      format: 0
      dimension: 0
    - stream: 0
      offset: 0
      format: 0
      dimension: 0
    - stream: 0
      offset: 0
      format: 0
      dimension: 0
    - stream: 0
      offset: 0
      format: 0
      dimension: 0
    - stream: 0
      offset: 0
      format: 0
      dimension: 0
    - stream: 0
      offset: 0
      format: 0
      dimension: 0
    - stream: 0
      offset: 0
      format: 0
      dimension: 0
    - stream: 0
      offset: 0
      format: 0
      dimension: 0
    - stream: 0
      offset: 0
      format: 0
      dimension: 0
    - stream: 0
      offset: 0
      format: 0
      dimension: 0
    m_DataSize: 0
    _typelessdata: 
  m_CompressedMesh:
    m_Vertices:
      m_NumItems: 0
      m_Range: 0
      m_Start: 0
      m_Data: 
      m_BitSize: 0
    m_UV:
      m_NumItems: 0
      m_Range: 0
      m_Start: 0
      m_Data: 
      m_BitSize: 0
    m_Normals:
      m_NumItems: 0
      m_Range: 0
      m_Start: 0
      m_Data: 
      m_BitSize: 0
    m_Tangents:
      m_NumItems: 0
      m_Range: 0
      m_Start: 0
      m_Data: 
      m_BitSize: 0
    m_Weights:
      m_NumItems: 0
      m_Data: 
      m_BitSize: 0
    m_NormalSigns:
      m_NumItems: 0
      m_Data: 
      m_BitSize: 0
    m_TangentSigns:
      m_NumItems: 0
      m_Data: 
      m_BitSize: 0
    m_FloatColors:
      m_NumItems: 0
      m_Range: 0
      m_Start: 0
      m_Data: 
      m_BitSize: 0
    m_BoneIndices:
      m_NumItems: 0
      m_Data: 
      m_BitSize: 0
    m_Triangles:
      m_NumItems: 0
      m_Data: 
      m_BitSize: 0
    m_UVInfo: 0
  m_LocalAABB:
    m_Center: {x: 0, y: 0, z: 0}
    m_Extent: {x: 0, y: 0, z: 0}
  m_MeshUsageFlags: 0
  m_BakedConvexCollisionMesh: 
  m_BakedTriangleCollisionMesh: 
  m_MeshMetrics[0]: 1
  m_MeshMetrics[1]: 1
  m_MeshOptimizationFlags: 1
  m_StreamData:
    serializedVersion: 2
    offset: 0
    size: 0
    path: 
--- !u!1 &926308008
GameObject:
  m_ObjectHideFlags: 0
  m_CorrespondingSourceObject: {fileID: 0}
  m_PrefabInstance: {fileID: 0}
  m_PrefabAsset: {fileID: 0}
  serializedVersion: 6
  m_Component:
  - component: {fileID: 926308010}
  - component: {fileID: 926308009}
  m_Layer: 0
  m_Name: BurstCollisionWorld
  m_TagString: Untagged
  m_Icon: {fileID: 0}
  m_NavMeshLayer: 0
  m_StaticEditorFlags: 0
  m_IsActive: 1
--- !u!114 &926308009
MonoBehaviour:
  m_ObjectHideFlags: 0
  m_CorrespondingSourceObject: {fileID: 0}
  m_PrefabInstance: {fileID: 0}
  m_PrefabAsset: {fileID: 0}
  m_GameObject: {fileID: 926308008}
  m_Enabled: 1
  m_EditorHideFlags: 0
  m_Script: {fileID: 11500000, guid: f1a161c4294214a4fbcb7e9e94800494, type: 3}
  m_Name: 
  m_EditorClassIdentifier: 
  cellSpans: {}
--- !u!4 &926308010
Transform:
  m_ObjectHideFlags: 0
  m_CorrespondingSourceObject: {fileID: 0}
  m_PrefabInstance: {fileID: 0}
  m_PrefabAsset: {fileID: 0}
  m_GameObject: {fileID: 926308008}
  m_LocalRotation: {x: 0, y: 0, z: 0, w: 1}
  m_LocalPosition: {x: 0, y: 0, z: 0}
  m_LocalScale: {x: 1, y: 1, z: 1}
  m_Children: []
  m_Father: {fileID: 0}
  m_RootOrder: 4
  m_LocalEulerAnglesHint: {x: 0, y: 0, z: 0}
--- !u!1 &1002464891
GameObject:
  m_ObjectHideFlags: 0
  m_CorrespondingSourceObject: {fileID: 0}
  m_PrefabInstance: {fileID: 0}
  m_PrefabAsset: {fileID: 0}
  serializedVersion: 6
  m_Component:
  - component: {fileID: 1002464896}
  - component: {fileID: 1002464895}
  - component: {fileID: 1002464893}
  - component: {fileID: 1002464892}
  - component: {fileID: 1002464897}
  m_Layer: 0
  m_Name: Main Camera
  m_TagString: MainCamera
  m_Icon: {fileID: 0}
  m_NavMeshLayer: 0
  m_StaticEditorFlags: 0
  m_IsActive: 1
--- !u!81 &1002464892
AudioListener:
  m_ObjectHideFlags: 0
  m_CorrespondingSourceObject: {fileID: 0}
  m_PrefabInstance: {fileID: 0}
  m_PrefabAsset: {fileID: 0}
  m_GameObject: {fileID: 1002464891}
  m_Enabled: 1
--- !u!124 &1002464893
Behaviour:
  m_ObjectHideFlags: 0
  m_CorrespondingSourceObject: {fileID: 0}
  m_PrefabInstance: {fileID: 0}
  m_PrefabAsset: {fileID: 0}
  m_GameObject: {fileID: 1002464891}
  m_Enabled: 1
--- !u!20 &1002464895
Camera:
  m_ObjectHideFlags: 0
  m_CorrespondingSourceObject: {fileID: 0}
  m_PrefabInstance: {fileID: 0}
  m_PrefabAsset: {fileID: 0}
  m_GameObject: {fileID: 1002464891}
  m_Enabled: 1
  serializedVersion: 2
  m_ClearFlags: 1
  m_BackGroundColor: {r: 0.19215687, g: 0.3019608, b: 0.4745098, a: 0.019607844}
  m_projectionMatrixMode: 1
  m_GateFitMode: 2
  m_FOVAxisMode: 0
  m_SensorSize: {x: 36, y: 24}
  m_LensShift: {x: 0, y: 0}
  m_FocalLength: 50
  m_NormalizedViewPortRect:
    serializedVersion: 2
    x: 0
    y: 0
    width: 1
    height: 1
  near clip plane: 0.3
  far clip plane: 1000
  field of view: 75
  orthographic: 0
  orthographic size: 5
  m_Depth: -1
  m_CullingMask:
    serializedVersion: 2
    m_Bits: 4294967295
  m_RenderingPath: -1
  m_TargetTexture: {fileID: 0}
  m_TargetDisplay: 0
  m_TargetEye: 3
  m_HDR: 0
  m_AllowMSAA: 1
  m_AllowDynamicResolution: 0
  m_ForceIntoRT: 0
  m_OcclusionCulling: 1
  m_StereoConvergence: 10
  m_StereoSeparation: 0.022
--- !u!4 &1002464896
Transform:
  m_ObjectHideFlags: 0
  m_CorrespondingSourceObject: {fileID: 0}
  m_PrefabInstance: {fileID: 0}
  m_PrefabAsset: {fileID: 0}
  m_GameObject: {fileID: 1002464891}
  m_LocalRotation: {x: 0.15760262, y: 0, z: 0, w: 0.98750263}
  m_LocalPosition: {x: 0, y: 3.95, z: -4.42}
  m_LocalScale: {x: 1, y: 1, z: 1}
  m_Children: []
  m_Father: {fileID: 0}
  m_RootOrder: 0
  m_LocalEulerAnglesHint: {x: 0, y: 0, z: 0}
--- !u!114 &1002464897
MonoBehaviour:
  m_ObjectHideFlags: 0
  m_CorrespondingSourceObject: {fileID: 0}
  m_PrefabInstance: {fileID: 0}
  m_PrefabAsset: {fileID: 0}
  m_GameObject: {fileID: 1002464891}
  m_Enabled: 0
  m_EditorHideFlags: 0
  m_Script: {fileID: 11500000, guid: 62e83a599724f45a4aa337d74764e572, type: 3}
  m_Name: 
  m_EditorClassIdentifier: 
  skin: {fileID: 11400000, guid: b90d3c214c99743b0865fc0e0d1f1a15, type: 2}
  threadColor: {r: 0, g: 1, b: 1, a: 1}
  taskColor: {r: 0, g: 1, b: 0, a: 1}
  parallelTaskColor: {r: 1, g: 0.8, b: 0.2, a: 1}
  renderTaskColor: {r: 0.2, g: 0.7, b: 1, a: 1}
  defaultTaskColor: {r: 1, g: 0.5, b: 0.2, a: 1}
  showPercentages: 0
  profileThrottle: 30
--- !u!1 &1175446144
GameObject:
  m_ObjectHideFlags: 0
  m_CorrespondingSourceObject: {fileID: 0}
  m_PrefabInstance: {fileID: 0}
  m_PrefabAsset: {fileID: 0}
  serializedVersion: 6
  m_Component:
  - component: {fileID: 1175446146}
  - component: {fileID: 1175446145}
  m_Layer: 0
  m_Name: Directional Light
  m_TagString: Untagged
  m_Icon: {fileID: 0}
  m_NavMeshLayer: 0
  m_StaticEditorFlags: 0
  m_IsActive: 1
--- !u!108 &1175446145
Light:
  m_ObjectHideFlags: 0
  m_CorrespondingSourceObject: {fileID: 0}
  m_PrefabInstance: {fileID: 0}
  m_PrefabAsset: {fileID: 0}
  m_GameObject: {fileID: 1175446144}
  m_Enabled: 1
  serializedVersion: 10
  m_Type: 1
  m_Shape: 0
  m_Color: {r: 1, g: 0.95686275, b: 0.8392157, a: 1}
  m_Intensity: 1
  m_Range: 10
  m_SpotAngle: 30
  m_InnerSpotAngle: 21.802082
  m_CookieSize: 10
  m_Shadows:
    m_Type: 2
    m_Resolution: -1
    m_CustomResolution: -1
    m_Strength: 1
    m_Bias: 0.03
    m_NormalBias: 0.01
    m_NearPlane: 0.2
    m_CullingMatrixOverride:
      e00: 1
      e01: 0
      e02: 0
      e03: 0
      e10: 0
      e11: 1
      e12: 0
      e13: 0
      e20: 0
      e21: 0
      e22: 1
      e23: 0
      e30: 0
      e31: 0
      e32: 0
      e33: 1
    m_UseCullingMatrixOverride: 0
  m_Cookie: {fileID: 0}
  m_DrawHalo: 0
  m_Flare: {fileID: 0}
  m_RenderMode: 0
  m_CullingMask:
    serializedVersion: 2
    m_Bits: 4294967295
  m_RenderingLayerMask: 1
  m_Lightmapping: 4
  m_LightShadowCasterMode: 0
  m_AreaSize: {x: 1, y: 1}
  m_BounceIntensity: 1
  m_ColorTemperature: 6570
  m_UseColorTemperature: 0
  m_BoundingSphereOverride: {x: 0, y: 0, z: 0, w: 0}
  m_UseBoundingSphereOverride: 0
  m_UseViewFrustumForShadowCasterCull: 1
  m_ShadowRadius: 0
  m_ShadowAngle: 0
--- !u!4 &1175446146
Transform:
  m_ObjectHideFlags: 0
  m_CorrespondingSourceObject: {fileID: 0}
  m_PrefabInstance: {fileID: 0}
  m_PrefabAsset: {fileID: 0}
  m_GameObject: {fileID: 1175446144}
  m_LocalRotation: {x: 0.41595167, y: -0.26247028, z: 0.26683384, w: 0.82879025}
  m_LocalPosition: {x: 0, y: 3, z: 0}
  m_LocalScale: {x: 1, y: 1, z: 1}
  m_Children: []
  m_Father: {fileID: 0}
  m_RootOrder: 2
  m_LocalEulerAnglesHint: {x: 56.052002, y: -22.431002, z: 23.642}
--- !u!1 &1346965641
GameObject:
  m_ObjectHideFlags: 0
  m_CorrespondingSourceObject: {fileID: 0}
  m_PrefabInstance: {fileID: 0}
  m_PrefabAsset: {fileID: 0}
  serializedVersion: 6
  m_Component:
  - component: {fileID: 1346965650}
  - component: {fileID: 1346965645}
  - component: {fileID: 1346965644}
  - component: {fileID: 1346965642}
  - component: {fileID: 1346965647}
  - component: {fileID: 1346965646}
  - component: {fileID: 1346965643}
  - component: {fileID: 1346965648}
  - component: {fileID: 1346965649}
  - component: {fileID: 1346965651}
  m_Layer: 10
  m_Name: Obi Rope
  m_TagString: Untagged
  m_Icon: {fileID: 0}
  m_NavMeshLayer: 0
  m_StaticEditorFlags: 0
  m_IsActive: 1
--- !u!114 &1346965642
MonoBehaviour:
  m_ObjectHideFlags: 0
  m_CorrespondingSourceObject: {fileID: 0}
  m_PrefabInstance: {fileID: 0}
  m_PrefabAsset: {fileID: 0}
  m_GameObject: {fileID: 1346965641}
  m_Enabled: 1
  m_EditorHideFlags: 0
  m_Script: {fileID: 11500000, guid: 61104f33a3f344db9b7e0d0cda41a9fb, type: 3}
  m_Name: 
  m_EditorClassIdentifier: 
  m_CollisionMaterial: {fileID: 0}
  m_SurfaceCollisions: 1
  m_SelfCollisions: 1
  restLength_: 5.3759427
  elements:
  - particle1: 294
    particle2: 295
    restLength: 0.11737857
    constraintForce: 0
    tearResistance: 1
  - particle1: 295
    particle2: 296
    restLength: 0.11757569
    constraintForce: 0
    tearResistance: 1
  - particle1: 296
    particle2: 297
    restLength: 0.117257625
    constraintForce: 0
    tearResistance: 1
  - particle1: 297
    particle2: 298
    restLength: 0.117347114
    constraintForce: 0
    tearResistance: 1
  - particle1: 298
    particle2: 299
    restLength: 0.11749813
    constraintForce: 0
    tearResistance: 1
  - particle1: 299
    particle2: 300
    restLength: 0.117627345
    constraintForce: 0
    tearResistance: 1
  - particle1: 300
    particle2: 301
    restLength: 0.1176776
    constraintForce: 0
    tearResistance: 1
  - particle1: 301
    particle2: 302
    restLength: 0.11761664
    constraintForce: 0
    tearResistance: 1
  - particle1: 302
    particle2: 303
    restLength: 0.117508255
    constraintForce: 0
    tearResistance: 1
  - particle1: 303
    particle2: 304
    restLength: 0.11763225
    constraintForce: 0
    tearResistance: 1
  - particle1: 304
    particle2: 305
    restLength: 0.11766701
    constraintForce: 0
    tearResistance: 1
  - particle1: 305
    particle2: 306
    restLength: 0.117603354
    constraintForce: 0
    tearResistance: 1
  - particle1: 306
    particle2: 307
    restLength: 0.11748713
    constraintForce: 0
    tearResistance: 1
  - particle1: 307
    particle2: 308
    restLength: 0.11737358
    constraintForce: 0
    tearResistance: 1
  - particle1: 308
    particle2: 309
    restLength: 0.11731443
    constraintForce: 0
    tearResistance: 1
  - particle1: 309
    particle2: 310
    restLength: 0.117334664
    constraintForce: 0
    tearResistance: 1
  - particle1: 310
    particle2: 311
    restLength: 0.117409684
    constraintForce: 0
    tearResistance: 1
  - particle1: 311
    particle2: 312
    restLength: 0.117427535
    constraintForce: 0
    tearResistance: 1
  - particle1: 312
    particle2: 313
    restLength: 0.1173339
    constraintForce: 0
    tearResistance: 1
  - particle1: 313
    particle2: 314
    restLength: 0.11715327
    constraintForce: 0
    tearResistance: 1
  - particle1: 314
    particle2: 315
    restLength: 0.11707407
    constraintForce: 0
    tearResistance: 1
  - particle1: 315
    particle2: 316
    restLength: 0.11728205
    constraintForce: 0
    tearResistance: 1
  - particle1: 316
    particle2: 317
    restLength: 0.11794879
    constraintForce: 0
    tearResistance: 1
  - particle1: 317
    particle2: 318
    restLength: 0.11673033
    constraintForce: 0
    tearResistance: 1
  - particle1: 318
    particle2: 319
    restLength: 0.116027325
    constraintForce: 0
    tearResistance: 1
  - particle1: 319
    particle2: 320
    restLength: 0.115863316
    constraintForce: 0
    tearResistance: 1
  - particle1: 320
    particle2: 321
    restLength: 0.11598866
    constraintForce: 0
    tearResistance: 1
  - particle1: 321
    particle2: 322
    restLength: 0.11614065
    constraintForce: 0
    tearResistance: 1
  - particle1: 322
    particle2: 323
    restLength: 0.11616688
    constraintForce: 0
    tearResistance: 1
  - particle1: 323
    particle2: 324
    restLength: 0.11612464
    constraintForce: 0
    tearResistance: 1
  - particle1: 324
    particle2: 325
    restLength: 0.116126075
    constraintForce: 0
    tearResistance: 1
  - particle1: 325
    particle2: 326
    restLength: 0.1162187
    constraintForce: 0
    tearResistance: 1
  - particle1: 326
    particle2: 327
    restLength: 0.116368376
    constraintForce: 0
    tearResistance: 1
  - particle1: 327
    particle2: 328
    restLength: 0.11650247
    constraintForce: 0
    tearResistance: 1
  - particle1: 328
    particle2: 329
    restLength: 0.11654539
    constraintForce: 0
    tearResistance: 1
  - particle1: 329
    particle2: 330
    restLength: 0.11637627
    constraintForce: 0
    tearResistance: 1
  - particle1: 330
    particle2: 331
    restLength: 0.116367616
    constraintForce: 0
    tearResistance: 1
  - particle1: 331
    particle2: 332
    restLength: 0.116505764
    constraintForce: 0
    tearResistance: 1
  - particle1: 332
    particle2: 333
    restLength: 0.11647182
    constraintForce: 0
    tearResistance: 1
  - particle1: 333
    particle2: 334
    restLength: 0.11628203
    constraintForce: 0
    tearResistance: 1
  - particle1: 334
    particle2: 335
    restLength: 0.11606255
    constraintForce: 0
    tearResistance: 1
  - particle1: 335
    particle2: 336
    restLength: 0.11669507
    constraintForce: 0
    tearResistance: 1
  - particle1: 336
    particle2: 337
    restLength: 0.116644375
    constraintForce: 0
    tearResistance: 1
  - particle1: 337
    particle2: 338
    restLength: 0.11652727
    constraintForce: 0
    tearResistance: 1
  - particle1: 338
    particle2: 339
    restLength: 0.116267465
    constraintForce: 0
    tearResistance: 1
  - particle1: 339
    particle2: 340
    restLength: 0.115411185
    constraintForce: 0
    tearResistance: 1
  m_RopeBlueprint: {fileID: 11400000, guid: f92460ac39eb444ad8f2bfb5714bb425, type: 2}
  tearingEnabled: 0
  tearResistanceMultiplier: 1000
  tearRate: 1
  _distanceConstraintsEnabled: 1
  _stretchingScale: 1
  _stretchCompliance: 0
  _maxCompression: 0
  _bendConstraintsEnabled: 1
  _bendCompliance: 0.02
  _maxBending: 0.025
  _plasticYield: 0
  _plasticCreep: 0
--- !u!114 &1346965643
MonoBehaviour:
  m_ObjectHideFlags: 0
  m_CorrespondingSourceObject: {fileID: 0}
  m_PrefabInstance: {fileID: 0}
  m_PrefabAsset: {fileID: 0}
  m_GameObject: {fileID: 1346965641}
  m_Enabled: 1
  m_EditorHideFlags: 0
  m_Script: {fileID: 11500000, guid: 4d03c9194b7ab4aaba4dfa5afec22c69, type: 3}
  m_Name: 
  m_EditorClassIdentifier: 
  m_Actor: {fileID: 1346965642}
  m_Target: {fileID: 1346965650}
  m_ParticleGroup: {fileID: -2639811391673711616, guid: d82adbfa2e0744621823a657cc1d4d9a,
    type: 2}
  m_AttachmentType: 0
  m_ConstrainOrientation: 0
  m_Compliance: 0
  m_BreakThreshold: Infinity
--- !u!23 &1346965644
MeshRenderer:
  m_ObjectHideFlags: 0
  m_CorrespondingSourceObject: {fileID: 0}
  m_PrefabInstance: {fileID: 0}
  m_PrefabAsset: {fileID: 0}
  m_GameObject: {fileID: 1346965641}
  m_Enabled: 1
  m_CastShadows: 1
  m_ReceiveShadows: 1
  m_DynamicOccludee: 1
  m_MotionVectors: 1
  m_LightProbeUsage: 1
  m_ReflectionProbeUsage: 1
  m_RayTracingMode: 2
  m_RayTraceProcedural: 0
  m_RenderingLayerMask: 4294967295
  m_RendererPriority: 0
  m_Materials:
  - {fileID: 2100000, guid: 44ab0cc40b59345718856f6e1c1225f3, type: 2}
  m_StaticBatchInfo:
    firstSubMesh: 0
    subMeshCount: 0
  m_StaticBatchRoot: {fileID: 0}
  m_ProbeAnchor: {fileID: 0}
  m_LightProbeVolumeOverride: {fileID: 0}
  m_ScaleInLightmap: 1
  m_ReceiveGI: 1
  m_PreserveUVs: 0
  m_IgnoreNormalsForChartDetection: 0
  m_ImportantGI: 0
  m_StitchLightmapSeams: 0
  m_SelectedEditorRenderState: 3
  m_MinimumChartSize: 4
  m_AutoUVMaxDistance: 0.5
  m_AutoUVMaxAngle: 89
  m_LightmapParameters: {fileID: 0}
  m_SortingLayerID: 0
  m_SortingLayer: 0
  m_SortingOrder: 0
  m_AdditionalVertexStreams: {fileID: 0}
--- !u!33 &1346965645
MeshFilter:
  m_ObjectHideFlags: 0
  m_CorrespondingSourceObject: {fileID: 0}
  m_PrefabInstance: {fileID: 0}
  m_PrefabAsset: {fileID: 0}
  m_GameObject: {fileID: 1346965641}
  m_Mesh: {fileID: 817841129}
--- !u!114 &1346965646
MonoBehaviour:
  m_ObjectHideFlags: 0
  m_CorrespondingSourceObject: {fileID: 0}
  m_PrefabInstance: {fileID: 0}
  m_PrefabAsset: {fileID: 0}
  m_GameObject: {fileID: 1346965641}
  m_Enabled: 1
  m_EditorHideFlags: 0
  m_Script: {fileID: 11500000, guid: c4747da60837c44f9ba4b4a86879bcc8, type: 3}
  m_Name: 
  m_EditorClassIdentifier: 
  uvAnchor: 0
  uvScale: {x: 1, y: 16}
  normalizeV: 1
  section: {fileID: 11400000, guid: a0bc36a59515f413e90e10895929c938, type: 2}
  thicknessScale: 0.8
--- !u!114 &1346965647
MonoBehaviour:
  m_ObjectHideFlags: 0
  m_CorrespondingSourceObject: {fileID: 0}
  m_PrefabInstance: {fileID: 0}
  m_PrefabAsset: {fileID: 0}
  m_GameObject: {fileID: 1346965641}
  m_Enabled: 1
  m_EditorHideFlags: 0
  m_Script: {fileID: 11500000, guid: 958c969cfb16745f192d4d7bd28b7178, type: 3}
  m_Name: 
  m_EditorClassIdentifier: 
  decimation: 0.05
  smoothing: 1
  twist: 0
--- !u!114 &1346965648
MonoBehaviour:
  m_ObjectHideFlags: 0
  m_CorrespondingSourceObject: {fileID: 0}
  m_PrefabInstance: {fileID: 0}
  m_PrefabAsset: {fileID: 0}
  m_GameObject: {fileID: 1346965641}
  m_Enabled: 1
  m_EditorHideFlags: 0
  m_Script: {fileID: 11500000, guid: 4d03c9194b7ab4aaba4dfa5afec22c69, type: 3}
  m_Name: 
  m_EditorClassIdentifier: 
  m_Actor: {fileID: 1346965642}
  m_Target: {fileID: 1346965650}
  m_ParticleGroup: {fileID: -8864857226987616246, guid: f92460ac39eb444ad8f2bfb5714bb425,
    type: 2}
  m_AttachmentType: 0
  m_ConstrainOrientation: 0
  m_Compliance: 0
  m_BreakThreshold: Infinity
--- !u!114 &1346965649
MonoBehaviour:
  m_ObjectHideFlags: 0
  m_CorrespondingSourceObject: {fileID: 0}
  m_PrefabInstance: {fileID: 0}
  m_PrefabAsset: {fileID: 0}
  m_GameObject: {fileID: 1346965641}
  m_Enabled: 1
  m_EditorHideFlags: 0
  m_Script: {fileID: 11500000, guid: 88cb6f64c607f46b3b0d7a30a99ed18b, type: 3}
  m_Name: 
  m_EditorClassIdentifier: 
  cam: {fileID: 1002464895}
--- !u!4 &1346965650
Transform:
  m_ObjectHideFlags: 0
  m_CorrespondingSourceObject: {fileID: 0}
  m_PrefabInstance: {fileID: 0}
  m_PrefabAsset: {fileID: 0}
  m_GameObject: {fileID: 1346965641}
  m_LocalRotation: {x: -0, y: -0, z: -0, w: 1}
  m_LocalPosition: {x: 0, y: 3.63, z: 0}
  m_LocalScale: {x: 1, y: 1, z: 1}
  m_Children: []
  m_Father: {fileID: 2102841797}
  m_RootOrder: 0
  m_LocalEulerAnglesHint: {x: 0, y: 0, z: 0}
--- !u!114 &1346965651
MonoBehaviour:
  m_ObjectHideFlags: 0
  m_CorrespondingSourceObject: {fileID: 0}
  m_PrefabInstance: {fileID: 0}
  m_PrefabAsset: {fileID: 0}
  m_GameObject: {fileID: 1346965641}
  m_Enabled: 1
  m_EditorHideFlags: 0
  m_Script: {fileID: 11500000, guid: 011ecd7e601cf4613b5b59bfd9d70895, type: 3}
  m_Name: 
  m_EditorClassIdentifier: 
  category: 0
--- !u!43 &1726337973
Mesh:
  m_ObjectHideFlags: 0
  m_CorrespondingSourceObject: {fileID: 0}
  m_PrefabInstance: {fileID: 0}
  m_PrefabAsset: {fileID: 0}
  m_Name: extrudedMesh
  serializedVersion: 10
  m_SubMeshes:
  - serializedVersion: 2
    firstByte: 0
    indexCount: 0
    topology: 0
    baseVertex: 0
    firstVertex: 0
    vertexCount: 0
    localAABB:
      m_Center: {x: 0, y: 0, z: 0}
      m_Extent: {x: 0, y: 0, z: 0}
  m_Shapes:
    vertices: []
    shapes: []
    channels: []
    fullWeights: []
  m_BindPose: []
  m_BoneNameHashes: 
  m_RootBoneNameHash: 0
  m_BonesAABB: []
  m_VariableBoneCountWeights:
    m_Data: 
  m_MeshCompression: 0
  m_IsReadable: 1
  m_KeepVertices: 1
  m_KeepIndices: 1
  m_IndexFormat: 0
  m_IndexBuffer: 
  m_VertexData:
    serializedVersion: 3
    m_VertexCount: 0
    m_Channels:
    - stream: 0
      offset: 0
      format: 0
      dimension: 0
    - stream: 0
      offset: 0
      format: 0
      dimension: 0
    - stream: 0
      offset: 0
      format: 0
      dimension: 0
    - stream: 0
      offset: 0
      format: 0
      dimension: 0
    - stream: 0
      offset: 0
      format: 0
      dimension: 0
    - stream: 0
      offset: 0
      format: 0
      dimension: 0
    - stream: 0
      offset: 0
      format: 0
      dimension: 0
    - stream: 0
      offset: 0
      format: 0
      dimension: 0
    - stream: 0
      offset: 0
      format: 0
      dimension: 0
    - stream: 0
      offset: 0
      format: 0
      dimension: 0
    - stream: 0
      offset: 0
      format: 0
      dimension: 0
    - stream: 0
      offset: 0
      format: 0
      dimension: 0
    - stream: 0
      offset: 0
      format: 0
      dimension: 0
    - stream: 0
      offset: 0
      format: 0
      dimension: 0
    m_DataSize: 0
    _typelessdata: 
  m_CompressedMesh:
    m_Vertices:
      m_NumItems: 0
      m_Range: 0
      m_Start: 0
      m_Data: 
      m_BitSize: 0
    m_UV:
      m_NumItems: 0
      m_Range: 0
      m_Start: 0
      m_Data: 
      m_BitSize: 0
    m_Normals:
      m_NumItems: 0
      m_Range: 0
      m_Start: 0
      m_Data: 
      m_BitSize: 0
    m_Tangents:
      m_NumItems: 0
      m_Range: 0
      m_Start: 0
      m_Data: 
      m_BitSize: 0
    m_Weights:
      m_NumItems: 0
      m_Data: 
      m_BitSize: 0
    m_NormalSigns:
      m_NumItems: 0
      m_Data: 
      m_BitSize: 0
    m_TangentSigns:
      m_NumItems: 0
      m_Data: 
      m_BitSize: 0
    m_FloatColors:
      m_NumItems: 0
      m_Range: 0
      m_Start: 0
      m_Data: 
      m_BitSize: 0
    m_BoneIndices:
      m_NumItems: 0
      m_Data: 
      m_BitSize: 0
    m_Triangles:
      m_NumItems: 0
      m_Data: 
      m_BitSize: 0
    m_UVInfo: 0
  m_LocalAABB:
    m_Center: {x: 0, y: 0, z: 0}
    m_Extent: {x: 0, y: 0, z: 0}
  m_MeshUsageFlags: 0
  m_BakedConvexCollisionMesh: 
  m_BakedTriangleCollisionMesh: 
  m_MeshMetrics[0]: 1
  m_MeshMetrics[1]: 1
  m_MeshOptimizationFlags: 1
  m_StreamData:
    serializedVersion: 2
    offset: 0
    size: 0
    path: 
--- !u!1 &1896057539
GameObject:
  m_ObjectHideFlags: 0
  m_CorrespondingSourceObject: {fileID: 0}
  m_PrefabInstance: {fileID: 0}
  m_PrefabAsset: {fileID: 0}
  serializedVersion: 6
  m_Component:
  - component: {fileID: 1896057543}
  - component: {fileID: 1896057542}
  - component: {fileID: 1896057541}
  - component: {fileID: 1896057540}
  m_Layer: 5
  m_Name: Canvas
  m_TagString: Untagged
  m_Icon: {fileID: 0}
  m_NavMeshLayer: 0
  m_StaticEditorFlags: 0
  m_IsActive: 1
--- !u!114 &1896057540
MonoBehaviour:
  m_ObjectHideFlags: 0
  m_CorrespondingSourceObject: {fileID: 0}
  m_PrefabInstance: {fileID: 0}
  m_PrefabAsset: {fileID: 0}
  m_GameObject: {fileID: 1896057539}
  m_Enabled: 1
  m_EditorHideFlags: 0
  m_Script: {fileID: 11500000, guid: dc42784cf147c0c48a680349fa168899, type: 3}
  m_Name: 
  m_EditorClassIdentifier: 
  m_IgnoreReversedGraphics: 1
  m_BlockingObjects: 0
  m_BlockingMask:
    serializedVersion: 2
    m_Bits: 4294967295
--- !u!114 &1896057541
MonoBehaviour:
  m_ObjectHideFlags: 0
  m_CorrespondingSourceObject: {fileID: 0}
  m_PrefabInstance: {fileID: 0}
  m_PrefabAsset: {fileID: 0}
  m_GameObject: {fileID: 1896057539}
  m_Enabled: 1
  m_EditorHideFlags: 0
  m_Script: {fileID: 11500000, guid: 0cd44c1031e13a943bb63640046fad76, type: 3}
  m_Name: 
  m_EditorClassIdentifier: 
  m_UiScaleMode: 0
  m_ReferencePixelsPerUnit: 100
  m_ScaleFactor: 1
  m_ReferenceResolution: {x: 800, y: 600}
  m_ScreenMatchMode: 0
  m_MatchWidthOrHeight: 0
  m_PhysicalUnit: 3
  m_FallbackScreenDPI: 96
  m_DefaultSpriteDPI: 96
  m_DynamicPixelsPerUnit: 1
  m_PresetInfoIsWorld: 0
--- !u!223 &1896057542
Canvas:
  m_ObjectHideFlags: 0
  m_CorrespondingSourceObject: {fileID: 0}
  m_PrefabInstance: {fileID: 0}
  m_PrefabAsset: {fileID: 0}
  m_GameObject: {fileID: 1896057539}
  m_Enabled: 1
  serializedVersion: 3
  m_RenderMode: 0
  m_Camera: {fileID: 0}
  m_PlaneDistance: 100
  m_PixelPerfect: 0
  m_ReceivesEvents: 1
  m_OverrideSorting: 0
  m_OverridePixelPerfect: 0
  m_SortingBucketNormalizedSize: 0
  m_AdditionalShaderChannelsFlag: 25
  m_SortingLayerID: 0
  m_SortingOrder: 0
  m_TargetDisplay: 0
--- !u!224 &1896057543
RectTransform:
  m_ObjectHideFlags: 0
  m_CorrespondingSourceObject: {fileID: 0}
  m_PrefabInstance: {fileID: 0}
  m_PrefabAsset: {fileID: 0}
  m_GameObject: {fileID: 1896057539}
  m_LocalRotation: {x: 0, y: 0, z: 0, w: 1}
  m_LocalPosition: {x: 0, y: 0, z: 0}
  m_LocalScale: {x: 0, y: 0, z: 0}
  m_Children:
  - {fileID: 2009578511}
  m_Father: {fileID: 0}
  m_RootOrder: 5
  m_LocalEulerAnglesHint: {x: 0, y: 0, z: 0}
  m_AnchorMin: {x: 0, y: 0}
  m_AnchorMax: {x: 0, y: 0}
  m_AnchoredPosition: {x: 0, y: 0}
  m_SizeDelta: {x: 0, y: 0}
  m_Pivot: {x: 0, y: 0}
--- !u!1 &2009578510
GameObject:
  m_ObjectHideFlags: 0
  m_CorrespondingSourceObject: {fileID: 0}
  m_PrefabInstance: {fileID: 0}
  m_PrefabAsset: {fileID: 0}
  serializedVersion: 6
  m_Component:
  - component: {fileID: 2009578511}
  - component: {fileID: 2009578513}
  - component: {fileID: 2009578512}
  m_Layer: 5
  m_Name: Text
  m_TagString: Untagged
  m_Icon: {fileID: 0}
  m_NavMeshLayer: 0
  m_StaticEditorFlags: 0
  m_IsActive: 1
--- !u!224 &2009578511
RectTransform:
  m_ObjectHideFlags: 0
  m_CorrespondingSourceObject: {fileID: 0}
  m_PrefabInstance: {fileID: 0}
  m_PrefabAsset: {fileID: 0}
  m_GameObject: {fileID: 2009578510}
  m_LocalRotation: {x: 0, y: 0, z: 0, w: 1}
  m_LocalPosition: {x: 0, y: 0, z: 0}
  m_LocalScale: {x: 1, y: 1, z: 1}
  m_Children: []
  m_Father: {fileID: 1896057543}
  m_RootOrder: 0
  m_LocalEulerAnglesHint: {x: 0, y: 0, z: 0}
  m_AnchorMin: {x: 0, y: 0}
  m_AnchorMax: {x: 0, y: 0}
  m_AnchoredPosition: {x: 103, y: 26}
  m_SizeDelta: {x: 160, y: 23.1}
  m_Pivot: {x: 0.5, y: 0.5}
--- !u!114 &2009578512
MonoBehaviour:
  m_ObjectHideFlags: 0
  m_CorrespondingSourceObject: {fileID: 0}
  m_PrefabInstance: {fileID: 0}
  m_PrefabAsset: {fileID: 0}
  m_GameObject: {fileID: 2009578510}
  m_Enabled: 1
  m_EditorHideFlags: 0
  m_Script: {fileID: 11500000, guid: 5f7201a12d95ffc409449d95f23cf332, type: 3}
  m_Name: 
  m_EditorClassIdentifier: 
  m_Material: {fileID: 0}
  m_Color: {r: 1, g: 1, b: 1, a: 1}
  m_RaycastTarget: 1
  m_RaycastPadding: {x: 0, y: 0, z: 0, w: 0}
  m_Maskable: 1
  m_OnCullStateChanged:
    m_PersistentCalls:
      m_Calls: []
  m_FontData:
    m_Font: {fileID: 10102, guid: 0000000000000000e000000000000000, type: 0}
    m_FontSize: 18
    m_FontStyle: 1
    m_BestFit: 0
    m_MinSize: 1
    m_MaxSize: 20
    m_Alignment: 3
    m_AlignByGeometry: 0
    m_RichText: 1
    m_HorizontalOverflow: 1
    m_VerticalOverflow: 0
    m_LineSpacing: 1
  m_Text: Click and drag to cut the ropes.
--- !u!222 &2009578513
CanvasRenderer:
  m_ObjectHideFlags: 0
  m_CorrespondingSourceObject: {fileID: 0}
  m_PrefabInstance: {fileID: 0}
  m_PrefabAsset: {fileID: 0}
  m_GameObject: {fileID: 2009578510}
  m_CullTransparentMesh: 0
--- !u!1 &2102841794
GameObject:
  m_ObjectHideFlags: 0
  m_CorrespondingSourceObject: {fileID: 0}
  m_PrefabInstance: {fileID: 0}
  m_PrefabAsset: {fileID: 0}
  serializedVersion: 6
  m_Component:
  - component: {fileID: 2102841797}
  - component: {fileID: 2102841796}
  - component: {fileID: 2102841795}
  m_Layer: 0
  m_Name: Obi Solver
  m_TagString: Untagged
  m_Icon: {fileID: 0}
  m_NavMeshLayer: 0
  m_StaticEditorFlags: 0
  m_IsActive: 1
--- !u!114 &2102841795
MonoBehaviour:
  m_ObjectHideFlags: 0
  m_CorrespondingSourceObject: {fileID: 0}
  m_PrefabInstance: {fileID: 0}
  m_PrefabAsset: {fileID: 0}
  m_GameObject: {fileID: 2102841794}
  m_Enabled: 1
  m_EditorHideFlags: 0
  m_Script: {fileID: 11500000, guid: 1d9704d540ac448439a425526f6b2986, type: 3}
  m_Name: 
  m_EditorClassIdentifier: 
  solvers:
  - {fileID: 2102841796}
  substeps: 3
--- !u!114 &2102841796
MonoBehaviour:
  m_ObjectHideFlags: 0
  m_CorrespondingSourceObject: {fileID: 0}
  m_PrefabInstance: {fileID: 0}
  m_PrefabAsset: {fileID: 0}
  m_GameObject: {fileID: 2102841794}
  m_Enabled: 1
  m_EditorHideFlags: 0
  m_Script: {fileID: 11500000, guid: 9d174fab52f0c4b8399f25d5c3ea524c, type: 3}
  m_Name: 
  m_EditorClassIdentifier: 
  simulateWhenInvisible: 1
  m_Backend: 1
  parameters:
    mode: 0
    interpolation: 0
    gravity: {x: 0, y: -9.81, z: 0}
    damping: 0.2
    maxAnisotropy: 3
    sleepThreshold: 0.0001
    collisionMargin: 0.025
    maxDepenetration: 10
    continuousCollisionDetection: 1
    shockPropagation: 0
    surfaceCollisionIterations: 8
    surfaceCollisionTolerance: 0.01
  worldLinearInertiaScale: 0
  worldAngularInertiaScale: 0
  distanceConstraintParameters:
    evaluationOrder: 0
    iterations: 2
    SORFactor: 1
    enabled: 1
  bendingConstraintParameters:
    evaluationOrder: 1
    iterations: 1
    SORFactor: 1
    enabled: 1
  particleCollisionConstraintParameters:
    evaluationOrder: 1
    iterations: 2
    SORFactor: 1
    enabled: 1
  particleFrictionConstraintParameters:
    evaluationOrder: 1
    iterations: 2
    SORFactor: 1
    enabled: 1
  collisionConstraintParameters:
    evaluationOrder: 1
    iterations: 1
    SORFactor: 1
    enabled: 1
  frictionConstraintParameters:
    evaluationOrder: 1
    iterations: 1
    SORFactor: 1
    enabled: 1
  skinConstraintParameters:
    evaluationOrder: 0
    iterations: 3
    SORFactor: 1
    enabled: 0
  volumeConstraintParameters:
    evaluationOrder: 1
    iterations: 3
    SORFactor: 1
    enabled: 0
  shapeMatchingConstraintParameters:
    evaluationOrder: 1
    iterations: 3
    SORFactor: 1
    enabled: 0
  tetherConstraintParameters:
    evaluationOrder: 1
    iterations: 3
    SORFactor: 1
    enabled: 0
  pinConstraintParameters:
    evaluationOrder: 1
    iterations: 5
    SORFactor: 1
    enabled: 0
  stitchConstraintParameters:
    evaluationOrder: 0
    iterations: 5
    SORFactor: 1
    enabled: 0
  densityConstraintParameters:
    evaluationOrder: 1
    iterations: 2
    SORFactor: 1
    enabled: 0
  stretchShearConstraintParameters:
    evaluationOrder: 0
    iterations: 3
    SORFactor: 1
    enabled: 0
  bendTwistConstraintParameters:
    evaluationOrder: 0
    iterations: 3
    SORFactor: 1
    enabled: 0
  chainConstraintParameters:
    evaluationOrder: 0
    iterations: 3
    SORFactor: 1
    enabled: 0
--- !u!4 &2102841797
Transform:
  m_ObjectHideFlags: 0
  m_CorrespondingSourceObject: {fileID: 0}
  m_PrefabInstance: {fileID: 0}
  m_PrefabAsset: {fileID: 0}
  m_GameObject: {fileID: 2102841794}
  m_LocalRotation: {x: 0, y: 0, z: 0, w: 1}
  m_LocalPosition: {x: 0, y: 0, z: 0}
  m_LocalScale: {x: 1, y: 1, z: 1}
  m_Children:
  - {fileID: 1346965650}
  - {fileID: 648289271}
  - {fileID: 21365383}
  m_Father: {fileID: 0}
  m_RootOrder: 3
  m_LocalEulerAnglesHint: {x: 0, y: 0, z: 0}
